{"schemes":
[
    {"scheme": "FF4737 E85B32 FF8944 E89032 FFB637 FFE642 CFFF57"},
	{"scheme": "FFB944 E8C657 FFEF51 CDE83E A3FF68 B5E854 63FF7E"},
	{"scheme": "55F0FF 74FF67 E8C659 FF6C59 965DE8 817FE8 C4FFA1"},
	{"scheme": "FFFE4E A4E84A 5DFF48 38E869 5FFFC7 62FFAB 6AC0FF"},
	{"scheme": "B7FF5D 4AE84E 47FFA2 38E8E1 5FBFFF 80B1FF B9B3FF"},
	{"scheme": "E8DE46 FF7D38 C239E8 45B5FF 51FFA5 4591FF E8DD74"},
	{"scheme": "59FF83 5AE8CC 5DCAFF 4B64E8 A774FF 59FF50 597CFF"},
	{"scheme": "681C95 B369DE C59BDE ABA1E0 8572E0 ABA1E0 E99EC4"},
	{"scheme": "66C1FF 6670E8 AD6AFF E557E8 FF8189 E892D5 FF7C79"},
	{"scheme": "90E855 66F2FF 7561FF E86A76 FFC757 FFF569 65E89C"},
	{"scheme": "5976FF 8C5AE8 EC5DFF E85D7F FF9274 A978E8 FFCA85"},
	{"scheme": "B45BFF E85CD6 FF645F E88A5F FFC777 E85C4A CA80E8"},
	{"scheme": "90E3D1 FFFBA1 C197E5 A65DE5 6310AC 04A481 FFF406"},
	{"scheme": "ff5980 ff5b59 ff8559 f8A2B0 ffae59 8559ff d859ff"}
]
}