{"patterns":
[	
	{"pattern":
	[
		"1 2 4 3 3 3 3 4 2 1",
		"2 4 3 2 2 2 3 4 2",
		"2 4 3 2 1 1 2 3 4 2",
		"2 4 3 2 2 2 3 4 2",
		"1 2 4 3 3 3 3 4 2 1"
	],
	"appearenceSequence": "4 3 2 1"
	},
	{"pattern":
	[
		"1 2 3 4 5 5 4 3 2 1",
		"2 3 4 5 6 6 5 4 3 2",
		"3 4 5 6 1 1 6 5 4 3",
		"3 4 5 6 1 1 6 5 4 3",
		"2 3 4 5 6 6 5 4 3 2",
		"1 2 3 4 5 5 4 3 2 1"
	],
	"appearenceSequence": "6 5 4 3 2 1"
	},
	{"pattern":
	[
		"1 2 3 4 5 5 4 3 2 1",
		"1 2 3 4 4 4 3 2 1",
		"6 1 2 3 3 3 3 2 1 6",
		"6 1 2 2 2 2 2 1 6",
		"1 6 1 1 1 1 1 1 6 1"
	],
	"appearenceSequence": "5 4 3 2 1 6"
	},
	{"pattern":
	[
		"1 3 2 2 3 3 2 2 3 1",
		"3 2 5 2 3 2 5 2 3",
		"3 2 5 5 2 2 5 5 2 3",
		"3 2 5 2 3 2 5 2 3",
		"1 3 2 2 3 3 2 2 3 1"
	],
	"appearenceSequence": "5 2 3 1"
	},
	{"pattern":
	[
		"2 3 4 5 7 7 5 4 3 2",
		"2 3 4 5 5 5 5 4 3 2",
		"2 3 4 4 4 4 4 4 3 2",
		"2 3 3 3 3 3 3 3 3 2",
		"2 2 2 2 2 2 2 2 2 2",
		"6 6 6 6 6 6 6 6 6 6"
	],
	"appearenceSequence": "7 5 4 3 2 6"
	},
	{"pattern":
	[
		"3 2 1 4 4 4 4 1 2 3",
		"2 1 4 2 2 2 4 1 2",
		"2 1 4 2 7 7 2 4 1 2",
		"2 1 4 2 2 2 4 1 2",
		"3 2 1 4 4 4 4 1 2 3"
	],
	"appearenceSequence": "1 4 2 7 3"
	},
	{"pattern":
	[
		"3 1 5 1 3 3 1 5 1 3",
		"5 3 5 3 5 5 3 5 3 5",
		"7 5 3 5 7 7 5 3 5 7",
		"7 5 3 5 7 7 5 3 5 7",
		"5 3 5 3 5 5 3 5 3 5",
		"3 1 5 1 3 3 1 5 1 3"
	],
	"appearenceSequence": "3 5 1 7"
	},
	{"pattern":
	[
		"5 4 3 2 1 1 2 3 4 5",
		"5 4 3 2 1 2 3 4 5",
		"5 4 3 2 7 7 2 3 4 5",
		"5 4 3 2 1 2 3 4 5",
		"5 4 3 2 1 1 2 3 4 5"
	],
	"appearenceSequence": "7 1 2 3 4 5"
	}
]
}